        point p1 = {.2,.5};
        point p2 = {.25,.5};
        point p3 = {.22,.1};
        point p4 = {.23,0};
        point p5 = {0,0};
        point p6 = {.1,.13};
________________________________________
	point p1 = {0,0};
        point p2 = {.5,.5};
        point p3 = {.7,.5};
        point p4 = {.2,0};
_______________________________________
	point p1 = {0,0};
        point p2 = {0.52532198881,0.52532198881};
        point p3 = {0.52532198881+.5,0.52532198881};
        point p4 = {0.52532198881,0};

